Analysis on US presidentsâ€™ inaugural speeches
…
Based on above ggplot, we can brefily see there exists a pattern about positive rates with timeline. It firstly goes down. And It goes up gradually. Rectenlt, it starts goes down. This plot is quite reasonble. Firstly, since the American society had a new life at the begining of 1800, the postive rate is relatively higher than following years. It goes extremely low as time goes to around 1860 since American suffered American Civil War. If we take the case of recent timestamp, it shows us downward trend because there was an Economic Depression that strated around 2008. In addition, American society was torn in terms of new Presiedent Trump because a half of American support Hillary and a half of People support for Donald.

Below codes are intended for showing the order of positive rates for each inaugural speech from least to most.

collections<-group_by(sentence.list, File, Term)
(tables <- summarise(collections, positive_rate = mean(PostOne, na.rm = TRUE)) %>% arrange(positive_rate))

## # A tibble: 58 x 3
## # Groups:   File [40]
##                    File  Term positive_rate
##                   <chr> <int>         <dbl>
##  1       AbrahamLincoln     1     0.7027027
##  2       AbrahamLincoln     2     0.7037037
##  3         JamesMadison     2     0.7435897
##  4       WarrenGHarding     1     0.7682927
##  5 WilliamHenryHarrison     1     0.7787234
##  6           JamesKPolk     1     0.7826087
##  7        JamesGarfield     1     0.7948718
##  8          BarackObama     1     0.7967480
##  9   GroverCleveland-II     2     0.8000000
## 10         JohnFKennedy     1     0.8000000
## # ... with 48 more rows
…
Based on above graph, we can see that there is a big emotional flunctuation in his first inaugural speech. The negative rate reaches peek nearly at the end of speech.

Try to find top ten negative rated senetnces

speech.df=as_tibble(sentence.list)%>%
  filter(File=="AbrahamLincoln", Term==1, PostOne==0,word.count>=4)%>%
  select(sentences, negative)
arrange(speech.df, desc(negative))

## # A tibble: 44 x 2
##                                                                      sentences
##                                                                         <fctr>
##  1                                       The Government will not assail 'you'.
##  2        Whoever rejects it does of necessity fly to anarchy or to despotism.
##  3                            Suppose you go to war, you can not fight always;
##  4                                                        I am loath to close.
##  5 and we denounce the lawless invasion by armed force of the soil of any Stat
##  6            Plainly the central idea of secession is the essence of anarchy.
##  7 The rule of a minority, as a permanent arrangement, is wholly inadmissible;
##  8                                                   But such is not our case.
##  9                                       This is the only substantial dispute.
## 10 The foreign slave trade, now imperfectly suppressed, would be ultimately re
## # ... with 34 more rows, and 1 more variables: negative <dbl>
…
